<mxfile host="app.diagrams.net" modified="2023-09-01T06:31:38.620Z" agent="Mozilla/5.0 (Macintosh; Intel Mac OS X 10.15; rv:109.0) Gecko/20100101 Firefox/116.0" version="21.7.1" etag="G7g2isE4xmKsFt_sStJW" type="github">
  <diagram name="Page-1" id="RXSlj4g8mtVd7W2M-bwI">
    <mxGraphModel>
      <root>
        <mxCell id="0" />
        <mxCell id="1" parent="0" />
      </root>
    </mxGraphModel>
  </diagram>
</mxfile>
